(kicad_sch (version 20211123) (generator eeschema)

  (uuid e63e39d7-6ac0-4ffd-8aa3-1841a4541b55)

  (paper "A4")

  (title_block
    (title "Simple LED")
    (company "Noobu")
    (comment 1 "Project 1 of learning PCB")
    (comment 2 "Rubin Khadka")
  )

  (lib_symbols
    (symbol "Device:Battery_Cell" (pin_numbers hide) (pin_names (offset 0) hide) (in_bom yes) (on_board yes)
      (property "Reference" "BT" (id 0) (at 2.54 2.54 0)
        (effects (font (size 1.27 1.27)) (justify left))
      )
      (property "Value" "Battery_Cell" (id 1) (at 2.54 0 0)
        (effects (font (size 1.27 1.27)) (justify left))
      )
      (property "Footprint" "" (id 2) (at 0 1.524 90)
        (effects (font (size 1.27 1.27)) hide)
      )
      (property "Datasheet" "~" (id 3) (at 0 1.524 90)
        (effects (font (size 1.27 1.27)) hide)
      )
      (property "ki_keywords" "battery cell" (id 4) (at 0 0 0)
        (effects (font (size 1.27 1.27)) hide)
      )
      (property "ki_description" "Single-cell battery" (id 5) (at 0 0 0)
        (effects (font (size 1.27 1.27)) hide)
      )
      (symbol "Battery_Cell_0_1"
        (rectangle (start -2.286 1.778) (end 2.286 1.524)
          (stroke (width 0) (type default) (color 0 0 0 0))
          (fill (type outline))
        )
        (rectangle (start -1.5748 1.1938) (end 1.4732 0.6858)
          (stroke (width 0) (type default) (color 0 0 0 0))
          (fill (type outline))
        )
        (polyline
          (pts
            (xy 0 0.762)
            (xy 0 0)
          )
          (stroke (width 0) (type default) (color 0 0 0 0))
          (fill (type none))
        )
        (polyline
          (pts
            (xy 0 1.778)
            (xy 0 2.54)
          )
          (stroke (width 0) (type default) (color 0 0 0 0))
          (fill (type none))
        )
        (polyline
          (pts
            (xy 0.508 3.429)
            (xy 1.524 3.429)
          )
          (stroke (width 0.254) (type default) (color 0 0 0 0))
          (fill (type none))
        )
        (polyline
          (pts
            (xy 1.016 3.937)
            (xy 1.016 2.921)
          )
          (stroke (width 0.254) (type default) (color 0 0 0 0))
          (fill (type none))
        )
      )
      (symbol "Battery_Cell_1_1"
        (pin passive line (at 0 5.08 270) (length 2.54)
          (name "+" (effects (font (size 1.27 1.27))))
          (number "1" (effects (font (size 1.27 1.27))))
        )
        (pin passive line (at 0 -2.54 90) (length 2.54)
          (name "-" (effects (font (size 1.27 1.27))))
          (number "2" (effects (font (size 1.27 1.27))))
        )
      )
    )
    (symbol "Device:LED" (pin_numbers hide) (pin_names (offset 1.016) hide) (in_bom yes) (on_board yes)
      (property "Reference" "D" (id 0) (at 0 2.54 0)
        (effects (font (size 1.27 1.27)))
      )
      (property "Value" "LED" (id 1) (at 0 -2.54 0)
        (effects (font (size 1.27 1.27)))
      )
      (property "Footprint" "" (id 2) (at 0 0 0)
        (effects (font (size 1.27 1.27)) hide)
      )
      (property "Datasheet" "~" (id 3) (at 0 0 0)
        (effects (font (size 1.27 1.27)) hide)
      )
      (property "ki_keywords" "LED diode" (id 4) (at 0 0 0)
        (effects (font (size 1.27 1.27)) hide)
      )
      (property "ki_description" "Light emitting diode" (id 5) (at 0 0 0)
        (effects (font (size 1.27 1.27)) hide)
      )
      (property "ki_fp_filters" "LED* LED_SMD:* LED_THT:*" (id 6) (at 0 0 0)
        (effects (font (size 1.27 1.27)) hide)
      )
      (symbol "LED_0_1"
        (polyline
          (pts
            (xy -1.27 -1.27)
            (xy -1.27 1.27)
          )
          (stroke (width 0.254) (type default) (color 0 0 0 0))
          (fill (type none))
        )
        (polyline
          (pts
            (xy -1.27 0)
            (xy 1.27 0)
          )
          (stroke (width 0) (type default) (color 0 0 0 0))
          (fill (type none))
        )
        (polyline
          (pts
            (xy 1.27 -1.27)
            (xy 1.27 1.27)
            (xy -1.27 0)
            (xy 1.27 -1.27)
          )
          (stroke (width 0.254) (type default) (color 0 0 0 0))
          (fill (type none))
        )
        (polyline
          (pts
            (xy -3.048 -0.762)
            (xy -4.572 -2.286)
            (xy -3.81 -2.286)
            (xy -4.572 -2.286)
            (xy -4.572 -1.524)
          )
          (stroke (width 0) (type default) (color 0 0 0 0))
          (fill (type none))
        )
        (polyline
          (pts
            (xy -1.778 -0.762)
            (xy -3.302 -2.286)
            (xy -2.54 -2.286)
            (xy -3.302 -2.286)
            (xy -3.302 -1.524)
          )
          (stroke (width 0) (type default) (color 0 0 0 0))
          (fill (type none))
        )
      )
      (symbol "LED_1_1"
        (pin passive line (at -3.81 0 0) (length 2.54)
          (name "K" (effects (font (size 1.27 1.27))))
          (number "1" (effects (font (size 1.27 1.27))))
        )
        (pin passive line (at 3.81 0 180) (length 2.54)
          (name "A" (effects (font (size 1.27 1.27))))
          (number "2" (effects (font (size 1.27 1.27))))
        )
      )
    )
    (symbol "Device:R" (pin_numbers hide) (pin_names (offset 0)) (in_bom yes) (on_board yes)
      (property "Reference" "R" (id 0) (at 2.032 0 90)
        (effects (font (size 1.27 1.27)))
      )
      (property "Value" "R" (id 1) (at 0 0 90)
        (effects (font (size 1.27 1.27)))
      )
      (property "Footprint" "" (id 2) (at -1.778 0 90)
        (effects (font (size 1.27 1.27)) hide)
      )
      (property "Datasheet" "~" (id 3) (at 0 0 0)
        (effects (font (size 1.27 1.27)) hide)
      )
      (property "ki_keywords" "R res resistor" (id 4) (at 0 0 0)
        (effects (font (size 1.27 1.27)) hide)
      )
      (property "ki_description" "Resistor" (id 5) (at 0 0 0)
        (effects (font (size 1.27 1.27)) hide)
      )
      (property "ki_fp_filters" "R_*" (id 6) (at 0 0 0)
        (effects (font (size 1.27 1.27)) hide)
      )
      (symbol "R_0_1"
        (rectangle (start -1.016 -2.54) (end 1.016 2.54)
          (stroke (width 0.254) (type default) (color 0 0 0 0))
          (fill (type none))
        )
      )
      (symbol "R_1_1"
        (pin passive line (at 0 3.81 270) (length 1.27)
          (name "~" (effects (font (size 1.27 1.27))))
          (number "1" (effects (font (size 1.27 1.27))))
        )
        (pin passive line (at 0 -3.81 90) (length 1.27)
          (name "~" (effects (font (size 1.27 1.27))))
          (number "2" (effects (font (size 1.27 1.27))))
        )
      )
    )
    (symbol "Switch:SW_DPST_x2" (pin_names (offset 0) hide) (in_bom yes) (on_board yes)
      (property "Reference" "SW" (id 0) (at 0 3.175 0)
        (effects (font (size 1.27 1.27)))
      )
      (property "Value" "SW_DPST_x2" (id 1) (at 0 -2.54 0)
        (effects (font (size 1.27 1.27)))
      )
      (property "Footprint" "" (id 2) (at 0 0 0)
        (effects (font (size 1.27 1.27)) hide)
      )
      (property "Datasheet" "~" (id 3) (at 0 0 0)
        (effects (font (size 1.27 1.27)) hide)
      )
      (property "ki_keywords" "switch lever" (id 4) (at 0 0 0)
        (effects (font (size 1.27 1.27)) hide)
      )
      (property "ki_description" "Single Pole Single Throw (SPST) switch, separate symbol" (id 5) (at 0 0 0)
        (effects (font (size 1.27 1.27)) hide)
      )
      (symbol "SW_DPST_x2_0_0"
        (circle (center -2.032 0) (radius 0.508)
          (stroke (width 0) (type default) (color 0 0 0 0))
          (fill (type none))
        )
        (polyline
          (pts
            (xy -1.524 0.254)
            (xy 1.524 1.778)
          )
          (stroke (width 0) (type default) (color 0 0 0 0))
          (fill (type none))
        )
        (circle (center 2.032 0) (radius 0.508)
          (stroke (width 0) (type default) (color 0 0 0 0))
          (fill (type none))
        )
      )
      (symbol "SW_DPST_x2_1_1"
        (pin passive line (at -5.08 0 0) (length 2.54)
          (name "A" (effects (font (size 1.27 1.27))))
          (number "1" (effects (font (size 1.27 1.27))))
        )
        (pin passive line (at 5.08 0 180) (length 2.54)
          (name "B" (effects (font (size 1.27 1.27))))
          (number "2" (effects (font (size 1.27 1.27))))
        )
      )
      (symbol "SW_DPST_x2_2_1"
        (pin passive line (at -5.08 0 0) (length 2.54)
          (name "A" (effects (font (size 1.27 1.27))))
          (number "3" (effects (font (size 1.27 1.27))))
        )
        (pin passive line (at 5.08 0 180) (length 2.54)
          (name "B" (effects (font (size 1.27 1.27))))
          (number "4" (effects (font (size 1.27 1.27))))
        )
      )
    )
  )


  (wire (pts (xy 118.11 53.34) (xy 127 53.34))
    (stroke (width 0) (type default) (color 0 0 0 0))
    (uuid 0ddb8ab5-c209-4cf0-933d-5a876f965a19)
  )
  (wire (pts (xy 81.28 53.34) (xy 81.28 68.58))
    (stroke (width 0) (type default) (color 0 0 0 0))
    (uuid 0e2f669e-0922-4099-9ecb-e53f3b650c04)
  )
  (polyline (pts (xy 166.37 80.01) (xy 71.12 80.01))
    (stroke (width 0) (type default) (color 0 0 0 0))
    (uuid 2d61e53d-0108-4ee2-a7ee-fe6e04e6853c)
  )
  (polyline (pts (xy 166.37 40.64) (xy 166.37 80.01))
    (stroke (width 0) (type default) (color 0 0 0 0))
    (uuid 4b5cb189-3eb2-4f83-bf47-701e5e6b46bc)
  )

  (wire (pts (xy 137.16 53.34) (xy 137.16 68.58))
    (stroke (width 0) (type default) (color 0 0 0 0))
    (uuid 50751d4c-ab14-49a7-9004-1ca0c92dd17b)
  )
  (wire (pts (xy 86.36 53.34) (xy 81.28 53.34))
    (stroke (width 0) (type default) (color 0 0 0 0))
    (uuid 5534375a-8dfd-4b8a-854d-9a6b30a06f06)
  )
  (polyline (pts (xy 71.12 40.64) (xy 166.37 40.64))
    (stroke (width 0) (type default) (color 0 0 0 0))
    (uuid 69281d74-bbb3-4a71-95c0-dec820d5bf22)
  )

  (wire (pts (xy 81.28 68.58) (xy 96.52 68.58))
    (stroke (width 0) (type default) (color 0 0 0 0))
    (uuid 8dde3d51-76fc-4f5c-bb73-767a5b0a1f78)
  )
  (wire (pts (xy 137.16 68.58) (xy 104.14 68.58))
    (stroke (width 0) (type default) (color 0 0 0 0))
    (uuid 92ea8d99-b552-44e1-a42e-f08b2f3ea978)
  )
  (wire (pts (xy 93.98 53.34) (xy 110.49 53.34))
    (stroke (width 0) (type default) (color 0 0 0 0))
    (uuid e61d19d2-7a6f-4603-b3a4-48b6e51441bc)
  )
  (polyline (pts (xy 71.12 40.64) (xy 71.12 80.01))
    (stroke (width 0) (type default) (color 0 0 0 0))
    (uuid fd0bd0c3-a417-411e-befa-6e09a0624a51)
  )

  (text "Simple LED circuit" (at 71.12 39.37 0)
    (effects (font (size 1.27 1.27)) (justify left bottom))
    (uuid 08b70838-cb2c-4265-8487-adfe51d999c8)
  )
  (text "using coin cell \nbattery holder." (at 106.68 66.04 180)
    (effects (font (size 1 1)) (justify right bottom))
    (uuid ba7687b1-264e-4ebf-9614-76035d39ab31)
  )

  (label "bat_pos" (at 110.49 68.58 0)
    (effects (font (size 1.27 1.27)) (justify left bottom))
    (uuid 4bff3aa5-c675-4fb9-a7ea-3fe964b9da00)
  )
  (label "LED_anode" (at 96.52 53.34 0)
    (effects (font (size 1.27 1.27)) (justify left bottom))
    (uuid 50563491-520a-4610-95a9-2d7a5c284cde)
  )
  (label "LED_cathode" (at 85.09 68.58 0)
    (effects (font (size 1.27 1.27)) (justify left bottom))
    (uuid 98cd4b13-6177-4821-9181-9529256987cb)
  )

  (symbol (lib_id "Device:LED") (at 90.17 53.34 0) (unit 1)
    (in_bom yes) (on_board yes)
    (uuid 1b5e1661-7a94-476e-8087-339708fbbd5f)
    (property "Reference" "D1" (id 0) (at 88.5825 46.99 0))
    (property "Value" "LED" (id 1) (at 88.5825 49.53 0))
    (property "Footprint" "LED_THT:LED_D5.0mm" (id 2) (at 83.82 44.45 0)
      (effects (font (size 1 1)))
    )
    (property "Datasheet" "~" (id 3) (at 90.17 53.34 0)
      (effects (font (size 1.27 1.27)) hide)
    )
    (pin "1" (uuid b68cd006-1a62-4da1-9beb-3be525c7d919))
    (pin "2" (uuid da444966-934c-4dd9-9e52-2850de8de50e))
  )

  (symbol (lib_id "Device:Battery_Cell") (at 99.06 68.58 270) (unit 1)
    (in_bom yes) (on_board yes)
    (uuid 2f3386e4-776c-4fd8-a358-179b6aee75b7)
    (property "Reference" "BT1" (id 0) (at 102.3621 72.39 90)
      (effects (font (size 1.27 1.27)) (justify right))
    )
    (property "Value" "Battery_Cell" (id 1) (at 105.41 74.93 90)
      (effects (font (size 1.27 1.27)) (justify right))
    )
    (property "Footprint" "Battery:BatteryHolder_Keystone_1058_1x2032" (id 2) (at 99.06 77.47 90)
      (effects (font (size 1 1)))
    )
    (property "Datasheet" "~" (id 3) (at 100.584 68.58 90)
      (effects (font (size 1.27 1.27)) hide)
    )
    (pin "1" (uuid 7733dc63-e152-48c3-9123-283e7e6e4b0e))
    (pin "2" (uuid c5c92d6c-51c1-4fb0-b50f-157c23183217))
  )

  (symbol (lib_id "Switch:SW_DPST_x2") (at 132.08 53.34 0) (unit 1)
    (in_bom yes) (on_board yes)
    (uuid 834a71fc-1ad0-4646-91b5-9090b6c47f61)
    (property "Reference" "SW1" (id 0) (at 132.08 45.72 0))
    (property "Value" "SW_DPST_x2" (id 1) (at 132.08 48.26 0))
    (property "Footprint" "Button_Switch_THT:SW_TH_Tactile_Omron_B3F-10xx" (id 2) (at 146.05 43.18 0)
      (effects (font (size 1 1)))
    )
    (property "Datasheet" "~" (id 3) (at 132.08 53.34 0)
      (effects (font (size 1.27 1.27)) hide)
    )
    (pin "1" (uuid 71a90db5-a157-4eca-8cad-9681e743d4d9))
    (pin "2" (uuid cac9add8-7e11-41d7-b5dc-f00d79bea5c0))
  )

  (symbol (lib_id "Device:R") (at 114.3 53.34 270) (unit 1)
    (in_bom yes) (on_board yes)
    (uuid c96e4f75-85ae-43e8-9d6b-b1ee75857ba4)
    (property "Reference" "R1" (id 0) (at 114.3 48.26 90))
    (property "Value" "R" (id 1) (at 114.3 50.8 90))
    (property "Footprint" "Resistor_THT:R_Axial_DIN0204_L3.6mm_D1.6mm_P7.62mm_Horizontal" (id 2) (at 111.76 45.72 90)
      (effects (font (size 0.5 0.5)))
    )
    (property "Datasheet" "~" (id 3) (at 114.3 53.34 0)
      (effects (font (size 1.27 1.27)) hide)
    )
    (pin "1" (uuid 213290c5-e02a-41d9-95a1-63fdeedefcbc))
    (pin "2" (uuid e47f9d9c-cf27-4f24-b25a-02866cf0da4b))
  )

  (sheet_instances
    (path "/" (page "1"))
  )

  (symbol_instances
    (path "/2f3386e4-776c-4fd8-a358-179b6aee75b7"
      (reference "BT1") (unit 1) (value "Battery_Cell") (footprint "Battery:BatteryHolder_Keystone_1058_1x2032")
    )
    (path "/1b5e1661-7a94-476e-8087-339708fbbd5f"
      (reference "D1") (unit 1) (value "LED") (footprint "LED_THT:LED_D5.0mm")
    )
    (path "/c96e4f75-85ae-43e8-9d6b-b1ee75857ba4"
      (reference "R1") (unit 1) (value "R") (footprint "Resistor_THT:R_Axial_DIN0204_L3.6mm_D1.6mm_P7.62mm_Horizontal")
    )
    (path "/834a71fc-1ad0-4646-91b5-9090b6c47f61"
      (reference "SW1") (unit 1) (value "SW_DPST_x2") (footprint "Button_Switch_THT:SW_TH_Tactile_Omron_B3F-10xx")
    )
  )
)
